Division,WeightClassKg,Place,Name,Team,BodyweightKg,Best3SquatKg,Best3BenchKg,Best3DeadliftKg,TotalKg,Equipment,Event,Sex
Boys,55.79,1,David Vega,Freeport Brazosport,51.89,142.88,92.99,165.56,401.43,Single-ply,SBD,M
Boys,51.71,2,Jorgeluis Garcia,Alvin,51.62,120.2,70.31,142.88,333.39,Single-ply,SBD,M
Boys,51.71,3,Randall Holland,Clute Brazoswood,51.07,97.52,68.04,122.47,288.03,Single-ply,SBD,M
Boys,51.71,4,Tyler Smith #11,West Columbia,51.48,81.65,61.23,108.86,251.74,Single-ply,SBD,M
Boys,51.71,5,Matt Durham,West Columbia,51.17,86.18,40.82,81.65,208.65,Single-ply,SBD,M
Boys,51.71,6,Anthony Gonzales,Alvin,51.62,68.04,43.09,77.11,188.24,Single-ply,SBD,M
Boys,55.79,1,DeMarco Corner,Manvel,55.25,117.93,65.77,149.69,333.39,Single-ply,SBD,M
Boys,55.79,2,Greg Gomez,West Columbia,53.3,108.86,68.04,120.2,297.1,Single-ply,SBD,M
Boys,59.87,1,Kris Velenzuela,Freeport Brazosport,58.01,138.35,74.84,145.15,358.34,Single-ply,SBD,M
Boys,59.87,2,Alex Rios-Cox,Manvel,59.42,138.35,68.04,147.42,353.8,Single-ply,SBD,M
Boys,59.87,3,Floyd Bess,West Columbia,59.33,120.2,61.23,161.03,342.46,Single-ply,SBD,M
Boys,59.87,4,Eduardo Trevino,Clute Brazoswood,56.52,122.47,74.84,142.88,340.19,Single-ply,SBD,M
Boys,74.84,1,James Hatcher,Alvin,67.27,172.37,99.79,183.7,455.86,Single-ply,SBD,M
Boys,67.13,2,Justin Hussey,West Columbia,62.64,181.44,97.52,172.37,451.32,Single-ply,SBD,M
Boys,67.13,3,Travis Clinton,Clute Brazoswood,66.41,165.56,111.13,165.56,442.25,Single-ply,SBD,M
Boys,74.84,4,Jon Quintero,Clute Brazoswood,67.27,154.22,102.06,170.1,426.38,Single-ply,SBD,M
Boys,67.13,5,John McDowel,Alvin,66.18,158.76,92.99,163.29,415.04,Single-ply,SBD,M
Boys,67.13,6,Ted Gonzalez,Manvel,63.32,124.74,97.52,158.76,381.02,Single-ply,SBD,M
Boys,67.13,7,Devan Romero,Freeport Brazosport,64.32,136.08,95.25,149.69,381.02,Single-ply,SBD,M
Boys,67.13,8,Nick Rodriguez #3,Manvel,61.01,120.2,79.38,136.08,335.66,Single-ply,SBD,M
Boys,74.84,1,Alfredo Washington,Manvel,70.81,190.51,127.01,183.7,501.22,Single-ply,SBD,M
Boys,74.84,2,Nick Fields,Freeport Brazosport,73.07,172.37,115.67,204.12,492.15,Single-ply,SBD,M
Boys,74.84,3,Kaylon Melancon,Manvel,72.67,181.44,113.4,181.44,476.27,Single-ply,SBD,M
Boys,74.84,4,Sam Salezar,Alvin,72.94,158.76,127.01,183.7,469.47,Single-ply,SBD,M
Boys,74.84,5,Nick Washington,Angleton,67.81,158.76,111.13,181.44,451.32,Single-ply,SBD,M
Boys,74.84,6,Hayden Trask,Manvel,70.58,140.61,86.18,181.44,408.23,Single-ply,SBD,M
Boys,74.84,7,Cody Hicks,Manvel,69.72,142.88,102.06,158.76,403.7,Single-ply,SBD,M
Boys,74.84,8,Jay Robinson,Angleton,70.4,133.81,90.72,172.37,396.89,Single-ply,SBD,M
Boys,74.84,9,Daniel Allen,Alvin,74.21,129.27,79.38,142.88,351.53,Single-ply,SBD,M
Boys,74.84,DQ,Richard Cooper #2,Freeport Brazosport,72.12,136.08,,,,Single-ply,SBD,M
Boys,89.81,1,Kristian Blaylock,Clute Brazoswood,82.28,226.8,127.01,233.6,587.4,Single-ply,SBD,M
Boys,82.1,2,Dexter Brown,Freeport Brazosport,79.74,197.31,129.27,197.31,523.9,Single-ply,SBD,M
Boys,82.1,3,Gavyn Wells,Clute Brazoswood,80.29,192.78,95.25,190.51,478.54,Single-ply,SBD,M
Boys,82.1,4,Sean Flannel,West Columbia,77.75,165.56,108.86,199.58,474,Single-ply,SBD,M
Boys,82.1,5,Corey Otwell,Manvel,79.38,163.29,113.4,181.44,458.13,Single-ply,SBD,M
Boys,82.1,6,D'Andre Woods,Alvin,81.06,151.95,122.47,167.83,442.25,Single-ply,SBD,M
Boys,82.1,7,Tj Austin,Angleton,81.1,142.88,106.59,181.44,430.91,Single-ply,SBD,M
Boys,82.1,8,Trenard Taplin,Manvel,78.38,158.76,72.57,181.44,412.77,Single-ply,SBD,M
Boys,82.1,9,Seth Salazar,Alvin,81.06,136.08,111.13,161.03,408.23,Single-ply,SBD,M
Boys,89.81,1,Troi Johnson,Clute Brazoswood,89.13,249.48,142.88,249.48,641.83,Single-ply,SBD,M
Boys,89.81,2,Thomas Stueart,West Columbia,87.27,192.78,108.86,190.51,492.15,Single-ply,SBD,M
Boys,89.81,3,Dalton Duke,West Columbia,83.05,181.44,104.33,190.51,476.27,Single-ply,SBD,M
Boys,89.81,DQ,Arthur Office,Manvel,88.22,,,,,Single-ply,SBD,M
Boys,89.81,DQ,Anthony Garza,Alvin,88.86,,,,,Single-ply,SBD,M
Boys,99.79,1,Scotty Bailey,Clute Brazoswood,97.16,272.16,163.29,244.94,680.39,Single-ply,SBD,M
Boys,99.79,2,Rodney Hall,Angleton,94.57,240.4,138.35,226.8,605.55,Single-ply,SBD,M
Boys,99.79,3,Quinton Bell,West Columbia,97.52,190.51,136.08,226.8,553.38,Single-ply,SBD,M
Boys,99.79,4,Brady Hudson,Alvin,94.62,163.29,117.93,183.7,464.93,Single-ply,SBD,M
Boys,99.79,5,Marvin Chizer,Angleton,90.13,183.7,86.18,181.44,451.32,Single-ply,SBD,M
Boys,109.77,1,Dylan Duke,West Columbia,108,247.21,136.08,256.28,639.57,Single-ply,SBD,M
Boys,109.77,2,Matt White,Alvin,102.6,208.65,158.76,219.99,587.4,Single-ply,SBD,M
Boys,109.77,3,Taylor Romero,Manvel,107.59,183.7,83.91,219.99,487.61,Single-ply,SBD,M
Boys,109.77,DQ,Nick Rich,Manvel,108.59,,,,,Single-ply,SBD,M
Boys,109.77,DQ,Caden Weiss,West Columbia,106.82,,,,,Single-ply,SBD,M
Boys,109.77,DQ,Brandon Fogel,West Columbia,104.1,,,,,Single-ply,SBD,M
Boys,124.74,1,Jose Torres,Freeport Brazosport,113.49,254.01,172.37,242.67,669.05,Single-ply,SBD,M
Boys,124.74,2,Vincen Shorter,West Columbia,111.22,247.21,142.88,215.46,605.55,Single-ply,SBD,M
Boys,124.74,3,Trey Cassidy,Angleton,122.33,226.8,140.61,226.8,594.21,Single-ply,SBD,M
Boys,124.74,4,Eric Christ,Manvel,112.94,219.99,136.08,222.26,578.33,Single-ply,SBD,M
Boys,124.74,5,Aaron Boucher,West Columbia,112.22,199.58,124.74,208.65,532.97,Single-ply,SBD,M
Boys,124.74,6,John Aluiso,Freeport Brazosport,116.94,181.44,124.74,176.9,483.08,Single-ply,SBD,M
Boys,124.74,7,Rawlstan Decoteau,Angleton,121.2,172.37,117.93,176.9,467.2,Single-ply,SBD,M
Boys,124.74,DQ,Elias Garza,Clute Brazoswood,114.21,,,,,Single-ply,SBD,M
Boys,124.74+,1,Tc Jones,Angleton,142.79,249.48,156.49,238.14,644.1,Single-ply,SBD,M
Boys,124.74+,2,Anthony Madrigal,Freeport Brazosport,135.22,242.67,163.29,235.87,641.83,Single-ply,SBD,M
Boys,124.74+,3,Travis Romero,Manvel,138.07,204.12,131.54,199.58,535.24,Single-ply,SBD,M
Boys,124.74+,4,Bryce Reed,Manvel,129.27,179.17,90.72,183.7,453.59,Single-ply,SBD,M
Boys,124.74+,5,Archiel Townsend,Clute Brazoswood,128.41,142.88,95.25,154.22,392.36,Single-ply,SBD,M
Boys,124.74+,DQ,Sterling Diggs,Manvel,133.86,226.8,156.49,,,Single-ply,SBD,M
